{
  "name": "Untitled"
  "slides": [
    {
      "id": "slide-0"
      "content": [
        {
          "id": "slide-elem-0",
          "type": "text",
          "styles": ["header"],
          "text": "Title"
        }
      ]
    }
  ],
  "styles": [
    {
      "name": "Header",
      "properties": {
        "font-size": "3em",
        "font-family": "sans-serif",
        "color": "white";
      }
    }
  ],
  "theme": "dark",
  "background": "",
  "collaborators": {
    "edit": ["nonthapat@pseudomail.com"],
    "story": ["nonth@fakemail.com"],
    "decorate": ["nonth@fake.me"],
    "comment": ["fake@mail.com"],
    "view": ["fek@mel.co"]
  },
  "audience": [{"private": 0}, {"collaborators": 1}, {"public": 2}, {"open": 3}]
}
